Lucas Wilkinson’s Blog - The MLB regular season is quite useless.
…
ChartData %>% 
  pivot_longer(
    cols=-Tm, 
    names_to="Type", 
    values_to="Total") -> Stacked
Stacked

# A tibble: 30 × 3
   Tm                  Type         Total
   <chr>               <chr>        <dbl>
 1 Los Angeles Dodgers Wins            61
 2 Los Angeles Dodgers Quality Wins    50
 3 Atlanta Braves      Wins            61
 4 Atlanta Braves      Quality Wins    40
 5 New York Mets       Wins            56
 6 New York Mets       Quality Wins    45
 7 St. Louis Cardinals Wins            59
 8 St. Louis Cardinals Quality Wins    34
 9 San Diego Padres    Wins            51
10 San Diego Padres    Quality Wins    38
# … with 20 more rows
…
